<?xml version="1.0" encoding="utf-8"?>
<!-- Generator: Adobe Illustrator 22.1.0, SVG Export Plug-In . SVG Version: 6.00 Build 0)  -->
<svg version="1.1" id="Layer_1" xmlns="http://www.w3.org/2000/svg" xmlns:xlink="http://www.w3.org/1999/xlink" x="0px" y="0px"
	 viewBox="0 0 592.2 224.8" style="enable-background:new 0 0 592.2 224.8;" xml:space="preserve">
<style type="text/css">
	.st0{clip-path:url(#SVGID_2_);fill:url(#SVGID_3_);}
	.st1{fill:#E20613;}
	.st2{clip-path:url(#SVGID_5_);fill:url(#SVGID_6_);}
	.st3{clip-path:url(#SVGID_8_);fill:url(#SVGID_9_);}
	.st4{clip-path:url(#SVGID_11_);fill:url(#SVGID_12_);}
	.st5{clip-path:url(#SVGID_14_);fill:url(#SVGID_15_);}
	.st6{clip-path:url(#SVGID_17_);fill:url(#SVGID_18_);}
	.st7{clip-path:url(#SVGID_20_);fill:url(#SVGID_21_);}
	.st8{clip-path:url(#SVGID_23_);fill:url(#SVGID_24_);}
	.st9{fill:#8C1815;}
	.st10{clip-path:url(#SVGID_26_);fill:url(#SVGID_27_);}
	.st11{clip-path:url(#SVGID_29_);fill:url(#SVGID_30_);}
	.st12{clip-path:url(#SVGID_32_);fill:url(#SVGID_33_);}
	.st13{clip-path:url(#SVGID_35_);fill:url(#SVGID_36_);}
	.st14{clip-path:url(#SVGID_38_);fill:url(#SVGID_39_);}
	.st15{clip-path:url(#SVGID_41_);fill:url(#SVGID_42_);}
	.st16{clip-path:url(#SVGID_44_);fill:url(#SVGID_45_);}
	.st17{opacity:0.8;}
	.st18{clip-path:url(#SVGID_47_);}
	.st19{clip-path:url(#SVGID_49_);fill:url(#SVGID_50_);}
	.st20{opacity:0.6;}
	.st21{clip-path:url(#SVGID_52_);}
	.st22{clip-path:url(#SVGID_54_);fill:url(#SVGID_55_);}
	.st23{clip-path:url(#SVGID_57_);}
	.st24{clip-path:url(#SVGID_59_);fill:url(#SVGID_60_);}
	.st25{clip-path:url(#SVGID_62_);fill:url(#SVGID_63_);}
	.st26{clip-path:url(#SVGID_65_);fill:url(#SVGID_66_);}
	.st27{clip-path:url(#SVGID_68_);fill:url(#SVGID_69_);}
	.st28{clip-path:url(#SVGID_71_);fill:url(#SVGID_72_);}
	.st29{clip-path:url(#SVGID_74_);fill:url(#SVGID_75_);}
	.st30{clip-path:url(#SVGID_77_);fill:url(#SVGID_78_);}
	.st31{clip-path:url(#SVGID_80_);fill:url(#SVGID_81_);}
	.st32{clip-path:url(#SVGID_83_);fill:url(#SVGID_84_);}
	.st33{clip-path:url(#SVGID_86_);fill:url(#SVGID_87_);}
	.st34{clip-path:url(#SVGID_89_);fill:url(#SVGID_90_);}
	.st35{clip-path:url(#SVGID_92_);fill:url(#SVGID_93_);}
	.st36{clip-path:url(#SVGID_95_);fill:url(#SVGID_96_);}
	.st37{fill:#DA1B27;}
	.st38{fill:#A81918;}
	.st39{fill:#2D2E82;}
	.st40{fill:#312782;}
</style>
<g>
	<g>
		<defs>
			<path id="SVGID_1_" d="M440.8,111.4c0,12.9,3.9,24.9,10.6,34.8h0c6.2,9.2,14.7,16.6,24.7,21.4c0,0,0.1,0,0.1,0.1
				c0.9,0.4,1.7,0.8,2.6,1.2c0.1,0,0.2,0.1,0.3,0.1c0.8,0.3,1.6,0.6,2.4,0.9c0.1,0.1,0.3,0.1,0.4,0.2c0.8,0.3,1.6,0.6,2.4,0.8
				c0.3,0.1,0.6,0.2,0.8,0.3c0.6,0.2,1.3,0.4,1.9,0.6c0.4,0.1,0.8,0.2,1.3,0.3c0.5,0.1,1.1,0.3,1.6,0.4c0.4,0.1,0.8,0.2,1.2,0.3
				c0.6,0.1,1.1,0.2,1.7,0.3c0.6,0.1,1.2,0.2,1.8,0.3c0.3,0,0.7,0.1,1,0.1c0.9,0.1,1.8,0.2,2.8,0.3c0.2,0,0.5,0,0.7,0.1
				c0.6,0,1.1,0.1,1.7,0.1c0.3,0,0.5,0,0.8,0c0.5,0,1,0,1.5,0c5.4,0,10.5-0.7,15.5-2c0.1,0,0.2,0,0.2-0.1c0.9-0.2,1.8-0.5,2.7-0.8
				c0.1,0,0.1,0,0.2,0c0.9-0.3,1.7-0.6,2.6-0.9c0.2-0.1,0.5-0.2,0.7-0.3c0.6-0.2,1.2-0.5,1.8-0.7c0.3-0.1,0.5-0.2,0.8-0.3
				c0.7-0.3,1.4-0.6,2.1-1c0.4-0.2,0.8-0.4,1.2-0.6c0.4-0.2,0.7-0.4,1.1-0.6c1.5-0.8,3.1-1.7,4.5-2.6c0.1-0.1,0.3-0.2,0.4-0.3
				c8.5-5.5,15.5-13,20.5-21.8c0,0,0,0,0-0.1h0c1.1-1.9,2-3.9,2.9-5.9h-24.2c-1.6,2.1-3.4,4.1-5.4,5.9h0c-1.3,1.2-2.7,2.3-4.1,3.3
				c-0.1,0.1-0.2,0.1-0.3,0.2c-0.4,0.2-0.7,0.5-1.1,0.7c-0.2,0.1-0.4,0.2-0.6,0.4c-0.3,0.2-0.6,0.4-1,0.6c-0.3,0.1-0.5,0.3-0.8,0.4
				c-0.3,0.2-0.6,0.3-0.8,0.4c-0.3,0.2-0.6,0.3-0.9,0.5c-0.2,0.1-0.5,0.2-0.7,0.3c-0.4,0.2-0.7,0.3-1.1,0.5
				c-0.2,0.1-0.4,0.2-0.6,0.3c-0.4,0.2-0.9,0.3-1.3,0.5c-0.2,0.1-0.3,0.1-0.5,0.2c-0.5,0.2-1,0.3-1.5,0.5c-0.1,0-0.2,0.1-0.3,0.1
				c-0.6,0.2-1.1,0.3-1.7,0.5c0,0-0.1,0-0.1,0c-3.3,0.8-6.7,1.3-10.3,1.3c-6.1,0-12-1.3-17.2-3.7c0,0,0,0,0,0
				c-1.7-0.8-3.3-1.7-4.9-2.7c-11.6-7.3-19.3-20.3-19.3-34.9c0-5.8-4.7-10.6-10.6-10.6S440.8,105.6,440.8,111.4 M455,71.8
				c-3.7,4.5-3.1,11.1,1.4,14.9c4.5,3.7,11.1,3.1,14.8-1.4c7.9-9.6,19.6-15.1,32-15.1c2,0,4.1,0.2,6,0.4c0.4,0.1,0.9,0.1,1.3,0.2
				c0.2,0,0.5,0.1,0.7,0.1c0.4,0.1,0.7,0.2,1.1,0.2c0.3,0.1,0.6,0.1,0.9,0.2c0.3,0.1,0.6,0.2,0.9,0.2c0.3,0.1,0.7,0.2,1,0.3
				c0.3,0.1,0.5,0.2,0.8,0.2c0.4,0.1,0.8,0.3,1.1,0.4c0.2,0.1,0.4,0.2,0.6,0.2c0.4,0.2,0.9,0.3,1.3,0.5c0.1,0.1,0.3,0.1,0.4,0.2
				c0.5,0.2,1,0.5,1.6,0.7c0.1,0,0.1,0.1,0.2,0.1c4.2,2,8,4.8,11.3,8h0c1.7,1.7,3.2,3.5,4.5,5.4h24c-5.6-13.5-15.8-24.7-28.7-31.5
				c0,0,0,0,0,0c-0.6-0.3-1.1-0.6-1.7-0.9c-0.2-0.1-0.3-0.2-0.5-0.2c-1.5-0.7-3.1-1.4-4.7-2c-0.4-0.2-0.8-0.3-1.2-0.5
				c-0.4-0.1-0.7-0.2-1.1-0.4c-0.6-0.2-1.1-0.4-1.7-0.5c-0.2-0.1-0.4-0.1-0.7-0.2c-0.8-0.2-1.7-0.5-2.5-0.7c-0.2,0-0.3-0.1-0.5-0.1
				c-0.8-0.2-1.5-0.3-2.3-0.5c-0.1,0-0.3-0.1-0.4-0.1c-1.9-0.4-3.7-0.6-5.7-0.8c0,0,0,0,0,0c-2-0.2-4-0.3-6-0.3
				C484.5,48.9,466.9,57.3,455,71.8"/>
		</defs>
		<clipPath id="SVGID_2_">
			<use xlink:href="#SVGID_1_"  style="overflow:visible;"/>
		</clipPath>
		
			<linearGradient id="SVGID_3_" gradientUnits="userSpaceOnUse" x1="-298.908" y1="532.4005" x2="-298.152" y2="532.4005" gradientTransform="matrix(0 -165.2661 -165.2661 0 88488.6328 -49225.4805)">
			<stop  offset="0" style="stop-color:#312782"/>
			<stop  offset="0.4327" style="stop-color:#312782"/>
			<stop  offset="0.8224" style="stop-color:#CE0A20"/>
			<stop  offset="0.8721" style="stop-color:#E20613"/>
			<stop  offset="1" style="stop-color:#E20613"/>
		</linearGradient>
		<rect x="440.8" y="48.9" class="st0" width="120.2" height="124.9"/>
	</g>
	<path class="st1" d="M204.9,134.3c4.3,1.4,8.8,2.1,13.6,2.1c4.7,0,9.3-0.7,13.7-2.1c3.2-1,6.3-2.4,9.2-4.3
		c6.8-4.2,12.2-9.8,15.9-16.9l1.6-3.1l-15.3-8.7l-1.8,3.3c-2.3,4.3-5.5,7.8-9.6,10.4c-4.2,2.6-8.7,3.8-13.7,3.8
		c-4.3,0-8.3-0.9-12-2.8l38-33.5l12.9-11.4l-1.6-2.6c-3.9-6.2-9.3-10.9-15.6-14.5c-4.7-2.6-9.6-4.4-14.8-5.2
		c-2.2-0.4-4.4-0.5-6.8-0.5c-1.2,0-2.3,0-3.4,0.1c-10.6,0.8-19.8,5.1-27.5,12.7c-8.7,8.5-13.1,19-13.1,31.2c0,7.1,1.6,13.5,4.5,19.4
		c2.1,4.2,5,8,8.5,11.6C192.7,128.5,198.5,132.2,204.9,134.3 M192.4,88.2L192.4,88.2c0.8-5.6,3.1-10.5,7.3-14.7
		c0.7-0.7,1.5-1.4,2.2-2h0c4.7-3.9,10.2-5.6,16.6-5.6c5.1,0,9.7,1.2,13.9,3.9l-37.9,33.7c-1.6-3.5-2.3-7.2-2.3-11.1
		C192.2,90.9,192.2,89.6,192.4,88.2"/>
	<path class="st1" d="M44.2,48.3c-11.2,0-20.8,3.8-29,11c-0.7,0.6-1.3,1.2-2,1.8c-8.7,8.6-13.1,19-13.1,31.2c0,12.1,4.5,22.5,13,31
		c5.9,5.9,12.6,9.8,20.2,11.7c3.5,0.8,7.1,1.3,10.9,1.3c3.8,0,7.5-0.4,10.9-1.3c1-0.2,1.9-0.5,2.9-0.8c0.4-0.1,0.7-0.3,1.1-0.4h0
		c5.2-1.9,9.9-4.7,14.3-8.6l13.6,9.9l1.2,0.9V48.2L73.4,59.4C65.2,52.1,55.4,48.3,44.2,48.3 M62.9,111.1c-4.1,4-8.7,6.5-14,7.3
		c-1.5,0.3-3.1,0.4-4.7,0.4c-7.4,0-13.6-2.4-18.8-7.6c-5.2-5.2-7.6-11.5-7.6-18.8c0-6.7,2-12.5,6.4-17.4c0.4-0.5,0.8-0.9,1.3-1.4
		c5.2-5.2,11.5-7.6,18.8-7.6c7.3,0,13.5,2.5,18.7,7.7c5.2,5.2,7.7,11.4,7.7,18.7C70.7,99.7,68.2,105.9,62.9,111.1"/>
	<path class="st1" d="M148.8,136.3h17.6V84.5c0-9.4-3.2-17.6-9.9-24.3c-6.7-6.7-14.9-9.9-24.3-9.9c-8.3,0-15.7,2.6-21.9,8l-12.3-9.9
		v87.9h17.6V84.5c0-4.6,1.6-8.4,4.8-11.7c3.3-3.3,7.1-4.8,11.7-4.8c4.6,0,8.5,1.5,11.8,4.7c3.3,3.3,4.8,7.2,4.8,11.9V136.3z"/>
	<polygon class="st1" points="332.8,136.4 304.2,86.1 325.6,48.3 304.8,48.3 293.7,67.8 282.6,48.3 261.7,48.3 283.3,86.1 
		254.6,136.4 275.5,136.4 293.7,104.4 311.9,136.4 	"/>
	<g>
		<defs>
			<path id="SVGID_4_" d="M255.1,30.4c0,0.7,0.2,1.3,0.7,1.9l4.4,4.4l4.4-4.4c0.4-0.5,0.7-1.2,0.7-1.9c0-1.6-1.3-2.8-2.8-2.8
				c-0.7,0-1.3,0.2-1.9,0.7l0,0l-0.4,0.4l-0.4-0.4l0,0c-0.5-0.4-1.2-0.7-1.9-0.7C256.4,27.6,255.1,28.9,255.1,30.4"/>
		</defs>
		<clipPath id="SVGID_5_">
			<use xlink:href="#SVGID_4_"  style="overflow:visible;"/>
		</clipPath>
		
			<linearGradient id="SVGID_6_" gradientUnits="userSpaceOnUse" x1="-298.0152" y1="529.7507" x2="-297.2592" y2="529.7507" gradientTransform="matrix(13.5598 0 0 -13.5598 4296.1553 7215.4917)">
			<stop  offset="0" style="stop-color:#8E1814"/>
			<stop  offset="1" style="stop-color:#E52D33"/>
		</linearGradient>
		<rect x="255.1" y="27.6" class="st2" width="10.3" height="9.1"/>
	</g>
	<g>
		<defs>
			<path id="SVGID_7_" d="M388.9,5.8L388.9,5.8c-14.7,0-27.5,3.5-38,10.4c-3,2-5.3,3.8-7.2,5.4c-0.6,0.5-1.2,1.1-1.7,1.6
				c0,0,0,0-0.1,0.1c0,0,0,0,0,0c-2.3,2.3-3.8,4.2-5.3,5.9c0,0,0,0,0,0c-11.1,13-6,29.7-1.9,34.2c4,4.4,9.1,6.1,12.6,6.1
				c-0.8-1.9-2.7-6.8-1.6-13.1c0.8-4.8,3.1-8.1,4.3-9.7c0,0,0,0,0,0c4.6-5.5,9.1-9.7,13.5-12.8c7-4.6,15.2-7,24.3-7
				c9.1,0,16.7,2.8,23.1,8.7c6.3,5.7,9.4,12.9,9.4,21.9c0,7.7-2.5,15.4-7.3,23c-5.1,8-14.5,18.1-27.9,30.1l-44.8,44.6
				c0,0-0.1,0.1-0.1,0.1l0,0l0,0c-1.9,1.9-3,4.6-3,7.5c0,5.9,4.8,10.7,10.7,10.7c2.9,0,5.5-1.1,7.4-3l0,0l0.1-0.1
				c0.1-0.1,0.1-0.1,0.2-0.2l44.8-44.8c16-14.5,26.7-25.9,32.7-34.7c7-10.5,10.6-21.9,10.6-34c0-14.6-5.3-26.9-15.8-36.5
				C417.4,10.6,404.3,5.8,388.9,5.8C389,5.8,388.9,5.8,388.9,5.8"/>
		</defs>
		<clipPath id="SVGID_8_">
			<use xlink:href="#SVGID_7_"  style="overflow:visible;"/>
		</clipPath>
		
			<linearGradient id="SVGID_9_" gradientUnits="userSpaceOnUse" x1="-298.8585" y1="531.8426" x2="-298.1025" y2="531.8426" gradientTransform="matrix(67.4002 185.1805 185.1805 -67.4002 -77987.2969 91201.5156)">
			<stop  offset="0" style="stop-color:#E20613"/>
			<stop  offset="0.1279" style="stop-color:#E20613"/>
			<stop  offset="0.1776" style="stop-color:#CE0A20"/>
			<stop  offset="0.5673" style="stop-color:#312782"/>
			<stop  offset="1" style="stop-color:#312782"/>
		</linearGradient>
		<polygon class="st3" points="429.7,-32.1 497.4,153.8 339.4,211.4 271.7,25.4 		"/>
	</g>
	<g>
		<defs>
			<path id="SVGID_10_" d="M345.7,152.5c-2.2,0.3-4.2,1.3-5.9,3c-4.2,4.2-4.2,11,0,15.1c1.9,1.9,4.3,2.9,6.8,3.1l30.4,0l59.5,0
				c2.5-0.2,4.9-1.2,6.8-3.1c4.2-4.2,4.2-11,0-15.1c-1.7-1.7-3.7-2.7-5.9-3l-60.4-0.1L345.7,152.5z"/>
		</defs>
		<clipPath id="SVGID_11_">
			<use xlink:href="#SVGID_10_"  style="overflow:visible;"/>
		</clipPath>
		
			<linearGradient id="SVGID_12_" gradientUnits="userSpaceOnUse" x1="-298.7831" y1="531.8694" x2="-298.0271" y2="531.8694" gradientTransform="matrix(-105.3444 225.9118 225.9118 105.3444 -151171.9375 11488.1211)">
			<stop  offset="0" style="stop-color:#E20613"/>
			<stop  offset="0.1279" style="stop-color:#E20613"/>
			<stop  offset="0.1776" style="stop-color:#CE0A20"/>
			<stop  offset="0.5673" style="stop-color:#312782"/>
			<stop  offset="1" style="stop-color:#312782"/>
		</linearGradient>
		<polygon class="st4" points="455.6,156.3 427.5,216.6 327.4,170 355.6,109.6 		"/>
	</g>
	<g>
		<defs>
			<path id="SVGID_13_" d="M461.7,7.6c-2.2,0.3-4.2,1.3-5.9,3c-4.2,4.2-4.2,11,0,15.1c1.9,1.9,4.3,2.9,6.8,3.1l30.4,0l44.5,0
				c2.5-0.2,4.9-1.2,6.8-3.1c4.2-4.2,4.2-11,0-15.1c-1.7-1.7-3.7-2.7-5.9-3L493,7.5L461.7,7.6z"/>
		</defs>
		<clipPath id="SVGID_14_">
			<use xlink:href="#SVGID_13_"  style="overflow:visible;"/>
		</clipPath>
		
			<linearGradient id="SVGID_15_" gradientUnits="userSpaceOnUse" x1="-298.4951" y1="532.1149" x2="-297.7391" y2="532.1149" gradientTransform="matrix(-220.2735 30.4835 30.4835 220.2735 -81342.375 -108111.3203)">
			<stop  offset="0" style="stop-color:#E84A41"/>
			<stop  offset="0.4406" style="stop-color:#E84A41"/>
			<stop  offset="0.6509" style="stop-color:#D61016"/>
			<stop  offset="1" style="stop-color:#8B1812"/>
		</linearGradient>
		<polygon class="st5" points="551.4,28.4 453.4,41.9 448.7,7.9 546.7,-5.7 		"/>
	</g>
	<g>
		<defs>
			<path id="SVGID_16_" d="M462.2,7.5c-0.6,0.1-1.9,0.3-3,0.8c-1.6,0.5-2.3,1.3-3.6,2.6c-1.9,2-2.9,4.6-3.1,7.3l0,32.7l0,27.4
				c0.2,2.6,1.1,5.1,2.9,7.1c4,4.5,11,4.6,15.2,0.3c1.8-1.8,2.8-4.1,3.1-6.5l0.1-28.4l-0.1-30.8c0-2.6,0.8-12.6,15.2-12.6l-26.4-0.1
				C462.4,7.4,462.3,7.4,462.2,7.5"/>
		</defs>
		<clipPath id="SVGID_17_">
			<use xlink:href="#SVGID_16_"  style="overflow:visible;"/>
		</clipPath>
		
			<linearGradient id="SVGID_18_" gradientUnits="userSpaceOnUse" x1="-298.763" y1="531.7839" x2="-298.007" y2="531.7839" gradientTransform="matrix(0 262.3098 262.3098 0 -139021.375 78301.9531)">
			<stop  offset="0" style="stop-color:#E84A41"/>
			<stop  offset="0.206" style="stop-color:#E84A41"/>
			<stop  offset="0.4897" style="stop-color:#D61016"/>
			<stop  offset="1" style="stop-color:#8B1812"/>
		</linearGradient>
		<rect x="452.5" y="7.4" class="st6" width="36.4" height="82.7"/>
	</g>
	<g>
		<defs>
			<path id="SVGID_19_" d="M263.3,35.8c0,0.3,0.1,0.6,0.3,0.9l2,2.1l2-2c0.2-0.2,0.3-0.5,0.3-0.9c0-0.7-0.6-1.3-1.3-1.3
				c-0.3,0-0.6,0.1-0.9,0.3l0,0l-0.2,0.2l-0.2-0.2l0,0c-0.2-0.2-0.5-0.3-0.9-0.3C263.9,34.5,263.3,35.1,263.3,35.8"/>
		</defs>
		<clipPath id="SVGID_20_">
			<use xlink:href="#SVGID_19_"  style="overflow:visible;"/>
		</clipPath>
		
			<linearGradient id="SVGID_21_" gradientUnits="userSpaceOnUse" x1="-303.2794" y1="534.8991" x2="-302.5234" y2="534.8991" gradientTransform="matrix(-4.6876 -3.7655 -3.7655 4.6876 859.5842 -3611.6042)">
			<stop  offset="0" style="stop-color:#B31917"/>
			<stop  offset="0.264" style="stop-color:#C52728"/>
			<stop  offset="0.7225" style="stop-color:#DE3B41"/>
			<stop  offset="1" style="stop-color:#E7424A"/>
		</linearGradient>
		<polygon class="st7" points="266.1,41 261.2,37.1 265.1,32.2 270.1,36.2 		"/>
	</g>
	<g>
		<defs>
			<path id="SVGID_22_" d="M303.7,27.9c-0.1,0.3-0.1,0.6,0,0.8l1.1,2.5l2.5-1.1c0.3-0.1,0.5-0.4,0.6-0.6c0.2-0.6-0.1-1.3-0.7-1.6
				c-0.3-0.1-0.6-0.1-0.8,0l0,0L306,28l-0.1-0.2l0,0c-0.1-0.3-0.4-0.5-0.6-0.6c-0.1-0.1-0.3-0.1-0.4-0.1
				C304.3,27.1,303.8,27.4,303.7,27.9"/>
		</defs>
		<clipPath id="SVGID_23_">
			<use xlink:href="#SVGID_22_"  style="overflow:visible;"/>
		</clipPath>
		
			<linearGradient id="SVGID_24_" gradientUnits="userSpaceOnUse" x1="-303.4807" y1="535.3538" x2="-302.7247" y2="535.3538" gradientTransform="matrix(-2.7716 -4.8299 -4.8299 2.7716 2051.2048 -2918.8813)">
			<stop  offset="0" style="stop-color:#B31917"/>
			<stop  offset="0.264" style="stop-color:#C52728"/>
			<stop  offset="0.7225" style="stop-color:#DE3B41"/>
			<stop  offset="1" style="stop-color:#E7424A"/>
		</linearGradient>
		<polygon class="st8" points="304.6,33.1 301.8,28.2 306.9,25.2 309.7,30.2 		"/>
	</g>
	<path class="st9" d="M280.5,23.4c-0.8-0.9-1.2-2.1-1.2-3.3c0-2.8,2.3-5.1,5.1-5.1c1.2,0,2.4,0.4,3.3,1.2l0,0l0.8,0.8l0.8-0.8l0,0
		c0.9-0.8,2.1-1.2,3.3-1.2c2.8,0,5.1,2.3,5.1,5.1c0,1.2-0.4,2.4-1.2,3.3l-7.9,8L280.5,23.4z"/>
	<g>
		<defs>
			<path id="SVGID_25_" d="M256.4,23c0,0.7,0.2,1.3,0.7,1.9l4.4,4.4l4.4-4.4c0.4-0.5,0.7-1.2,0.7-1.9c0-1.6-1.3-2.8-2.8-2.8
				c-0.7,0-1.3,0.2-1.9,0.7l0,0l-0.4,0.4l-0.4-0.4l0,0c-0.5-0.4-1.2-0.7-1.9-0.7C257.6,20.2,256.4,21.4,256.4,23"/>
		</defs>
		<clipPath id="SVGID_26_">
			<use xlink:href="#SVGID_25_"  style="overflow:visible;"/>
		</clipPath>
		
			<linearGradient id="SVGID_27_" gradientUnits="userSpaceOnUse" x1="-301.1805" y1="533.5181" x2="-300.4245" y2="533.5181" gradientTransform="matrix(-10.1484 -8.152 -8.152 10.1484 1557.3461 -7842.3457)">
			<stop  offset="0" style="stop-color:#B31917"/>
			<stop  offset="0.264" style="stop-color:#C52728"/>
			<stop  offset="0.7225" style="stop-color:#DE3B41"/>
			<stop  offset="1" style="stop-color:#E7424A"/>
		</linearGradient>
		<polygon class="st10" points="262.6,34.3 251.9,25.7 260.4,15.2 271.1,23.8 		"/>
	</g>
	<g>
		<defs>
			<path id="SVGID_28_" d="M262.3,31.7c0,0.3,0.1,0.6,0.3,0.8l1.9,1.9l1.9-1.9c0.2-0.2,0.3-0.5,0.3-0.8c0-0.7-0.5-1.2-1.2-1.2
				c-0.3,0-0.6,0.1-0.8,0.3l0,0l-0.2,0.2l-0.2-0.2l0,0c-0.2-0.2-0.5-0.3-0.8-0.3C262.9,30.5,262.3,31,262.3,31.7"/>
		</defs>
		<clipPath id="SVGID_29_">
			<use xlink:href="#SVGID_28_"  style="overflow:visible;"/>
		</clipPath>
		
			<linearGradient id="SVGID_30_" gradientUnits="userSpaceOnUse" x1="-303.7711" y1="535.3239" x2="-303.0151" y2="535.3239" gradientTransform="matrix(-4.3419 -3.4878 -3.4878 4.3419 814.0013 -3350.3257)">
			<stop  offset="0" style="stop-color:#B31917"/>
			<stop  offset="0.264" style="stop-color:#C52728"/>
			<stop  offset="0.7225" style="stop-color:#DE3B41"/>
			<stop  offset="1" style="stop-color:#E7424A"/>
		</linearGradient>
		<polygon class="st11" points="265,36.5 260.4,32.8 264,28.3 268.6,32 		"/>
	</g>
	<g>
		<defs>
			<path id="SVGID_31_" d="M269.1,39.6c-0.3,0.1-0.5,0.2-0.7,0.5l0,0l-0.1,0.2l-0.2-0.1l0,0c-0.3-0.1-0.6-0.2-0.8-0.1
				c-0.6,0.1-1.1,0.8-0.9,1.4c0.1,0.3,0.2,0.5,0.5,0.7l2.3,1.4l1.4-2.3c0.1-0.3,0.2-0.6,0.1-0.8c-0.1-0.6-0.6-0.9-1.2-0.9
				C269.3,39.5,269.2,39.6,269.1,39.6"/>
		</defs>
		<clipPath id="SVGID_32_">
			<use xlink:href="#SVGID_31_"  style="overflow:visible;"/>
		</clipPath>
		
			<linearGradient id="SVGID_33_" gradientUnits="userSpaceOnUse" x1="-302.5663" y1="535.9694" x2="-301.8104" y2="535.9694" gradientTransform="matrix(-5.0085 -2.4346 -2.4346 5.0085 59.6231 -3378.6111)">
			<stop  offset="0" style="stop-color:#B31917"/>
			<stop  offset="0.264" style="stop-color:#C52728"/>
			<stop  offset="0.7225" style="stop-color:#DE3B41"/>
			<stop  offset="1" style="stop-color:#E7424A"/>
		</linearGradient>
		<polygon class="st12" points="269.8,45.4 264.6,42.8 267,37.8 272.2,40.3 		"/>
	</g>
	<g>
		<defs>
			<path id="SVGID_34_" d="M253.3,44.3c-0.1,0.3-0.1,0.6,0,0.8l1.1,2.4l2.4-1.1c0.3-0.1,0.5-0.4,0.6-0.6c0.2-0.6-0.1-1.3-0.7-1.5
				c-0.3-0.1-0.6-0.1-0.8,0l0,0l-0.2,0.1l-0.1-0.2l0,0c-0.1-0.3-0.4-0.5-0.6-0.6c-0.1,0-0.3-0.1-0.4-0.1
				C254,43.5,253.5,43.8,253.3,44.3"/>
		</defs>
		<clipPath id="SVGID_35_">
			<use xlink:href="#SVGID_34_"  style="overflow:visible;"/>
		</clipPath>
		
			<linearGradient id="SVGID_36_" gradientUnits="userSpaceOnUse" x1="-304.1671" y1="532.3749" x2="-303.4111" y2="532.3749" gradientTransform="matrix(-2.8841 -4.7639 -4.7639 2.8841 1915.2604 -2937.4463)">
			<stop  offset="0" style="stop-color:#B31917"/>
			<stop  offset="0.264" style="stop-color:#C52728"/>
			<stop  offset="0.7225" style="stop-color:#DE3B41"/>
			<stop  offset="1" style="stop-color:#E7424A"/>
		</linearGradient>
		<polygon class="st13" points="254.4,49.5 251.4,44.6 256.5,41.5 259.5,46.5 		"/>
	</g>
	<g>
		<defs>
			<path id="SVGID_37_" d="M256.8,38.5c0,0.2,0,0.4,0.2,0.6l1.2,1.5l1.5-1.2c0.1-0.1,0.2-0.3,0.3-0.5c0-0.5-0.3-0.9-0.8-0.9
				c-0.2,0-0.4,0-0.6,0.2l0,0l-0.1,0.1l-0.1-0.1l0,0c-0.1-0.1-0.3-0.2-0.5-0.3c0,0-0.1,0-0.1,0C257.2,37.8,256.8,38.1,256.8,38.5"/>
		</defs>
		<clipPath id="SVGID_38_">
			<use xlink:href="#SVGID_37_"  style="overflow:visible;"/>
		</clipPath>
		
			<linearGradient id="SVGID_39_" gradientUnits="userSpaceOnUse" x1="-306.1247" y1="535.2073" x2="-305.3687" y2="535.2073" gradientTransform="matrix(-2.8146 -2.7368 -2.7368 2.8146 862.2986 -2304.2009)">
			<stop  offset="0" style="stop-color:#B31917"/>
			<stop  offset="0.264" style="stop-color:#C52728"/>
			<stop  offset="0.7225" style="stop-color:#DE3B41"/>
			<stop  offset="1" style="stop-color:#E7424A"/>
		</linearGradient>
		<polygon class="st14" points="258.4,42.1 255.3,39.2 258.3,36.2 261.3,39.1 		"/>
	</g>
	<g>
		<defs>
			<path id="SVGID_40_" d="M271.2,12.4c0,0.2,0,0.4,0.2,0.6l1.2,1.5l1.5-1.2c0.1-0.1,0.2-0.3,0.3-0.5c0-0.5-0.3-0.9-0.8-0.9
				c-0.2,0-0.4,0-0.6,0.2l0,0l-0.1,0.1l-0.1-0.1l0,0c-0.1-0.1-0.3-0.2-0.5-0.3c0,0-0.1,0-0.1,0C271.6,11.6,271.3,11.9,271.2,12.4"/>
		</defs>
		<clipPath id="SVGID_41_">
			<use xlink:href="#SVGID_40_"  style="overflow:visible;"/>
		</clipPath>
		
			<linearGradient id="SVGID_42_" gradientUnits="userSpaceOnUse" x1="-306.9255" y1="537.4153" x2="-306.1695" y2="537.4153" gradientTransform="matrix(-2.8147 -2.7369 -2.7369 2.8147 880.584 -2338.8733)">
			<stop  offset="0" style="stop-color:#B31917"/>
			<stop  offset="0.264" style="stop-color:#C52728"/>
			<stop  offset="0.7225" style="stop-color:#DE3B41"/>
			<stop  offset="1" style="stop-color:#E7424A"/>
		</linearGradient>
		<polygon class="st15" points="272.8,16 269.8,13 272.7,10 275.8,12.9 		"/>
	</g>
	<g>
		<defs>
			<path id="SVGID_43_" d="M262.1,42.3c-0.2,0-0.4,0.1-0.5,0.3l0,0l-0.1,0.1l-0.1-0.1l0,0c-0.2-0.1-0.4-0.2-0.6-0.1
				c-0.5,0.1-0.8,0.5-0.7,1c0,0.2,0.1,0.4,0.3,0.5l1.5,1.1l1.1-1.5c0.1-0.2,0.2-0.4,0.1-0.6c-0.1-0.4-0.4-0.7-0.8-0.7
				C262.2,42.3,262.2,42.3,262.1,42.3"/>
		</defs>
		<clipPath id="SVGID_44_">
			<use xlink:href="#SVGID_43_"  style="overflow:visible;"/>
		</clipPath>
		
			<linearGradient id="SVGID_45_" gradientUnits="userSpaceOnUse" x1="-304.6906" y1="536.6055" x2="-303.9346" y2="536.6055" gradientTransform="matrix(-3.3973 -1.968 -1.968 3.3973 283.6044 -2378.2271)">
			<stop  offset="0" style="stop-color:#B31917"/>
			<stop  offset="0.264" style="stop-color:#C52728"/>
			<stop  offset="0.7225" style="stop-color:#DE3B41"/>
			<stop  offset="1" style="stop-color:#E7424A"/>
		</linearGradient>
		<polygon class="st16" points="262.3,46.5 258.7,44.5 260.8,41 264.4,43 		"/>
	</g>
	<g class="st17">
		<g>
			<defs>
				<rect id="SVGID_46_" x="264.4" y="43.8" width="2.6" height="2.4"/>
			</defs>
			<clipPath id="SVGID_47_">
				<use xlink:href="#SVGID_46_"  style="overflow:visible;"/>
			</clipPath>
			<g class="st18">
				<defs>
					<path id="SVGID_48_" d="M264.6,45.3c-0.1-0.1-0.2-0.3-0.2-0.4c-0.1-0.4,0.2-0.8,0.6-0.8c0.2,0,0.3,0,0.5,0.1l0,0l0.1,0.1
						l0.1-0.1l0,0c0.1-0.1,0.3-0.2,0.4-0.2c0.4-0.1,0.8,0.2,0.8,0.6c0,0.2,0,0.3-0.1,0.5l-1,1.3L264.6,45.3z"/>
				</defs>
				<clipPath id="SVGID_49_">
					<use xlink:href="#SVGID_48_"  style="overflow:visible;"/>
				</clipPath>
				
					<linearGradient id="SVGID_50_" gradientUnits="userSpaceOnUse" x1="-305.4075" y1="537.2706" x2="-304.6515" y2="537.2706" gradientTransform="matrix(-2.8509 -1.7226 -1.7226 2.8509 321.4189 -2012.205)">
					<stop  offset="0" style="stop-color:#B31917"/>
					<stop  offset="0.264" style="stop-color:#C52728"/>
					<stop  offset="0.7225" style="stop-color:#DE3B41"/>
					<stop  offset="1" style="stop-color:#E7424A"/>
				</linearGradient>
				<polygon class="st19" points="266.3,47.4 263.2,45.6 265,42.6 268.1,44.4 				"/>
			</g>
		</g>
	</g>
	<g class="st20">
		<g>
			<defs>
				<rect id="SVGID_51_" x="254.2" y="51.4" width="2.8" height="2.6"/>
			</defs>
			<clipPath id="SVGID_52_">
				<use xlink:href="#SVGID_51_"  style="overflow:visible;"/>
			</clipPath>
			<g class="st21">
				<defs>
					<path id="SVGID_53_" d="M254.6,53.3c-0.2-0.1-0.3-0.2-0.4-0.4c-0.2-0.4,0.1-0.9,0.5-1c0.2-0.1,0.4-0.1,0.6,0l0,0l0.2,0.1
						l0.1-0.2l0,0c0.1-0.2,0.2-0.3,0.4-0.4c0.4-0.2,0.9,0.1,1,0.5c0.1,0.2,0.1,0.4,0,0.6l-0.7,1.6L254.6,53.3z"/>
				</defs>
				<clipPath id="SVGID_54_">
					<use xlink:href="#SVGID_53_"  style="overflow:visible;"/>
				</clipPath>
				
					<linearGradient id="SVGID_55_" gradientUnits="userSpaceOnUse" x1="-304.2342" y1="537.2578" x2="-303.4782" y2="537.2578" gradientTransform="matrix(-3.4375 -1.1348 -1.1348 3.4375 -179.2605 -2139.0042)">
					<stop  offset="0" style="stop-color:#B31917"/>
					<stop  offset="0.264" style="stop-color:#C52728"/>
					<stop  offset="0.7225" style="stop-color:#DE3B41"/>
					<stop  offset="1" style="stop-color:#E7424A"/>
				</linearGradient>
				<polygon class="st22" points="256.7,54.9 253.3,53.7 254.4,50.4 257.8,51.5 				"/>
			</g>
		</g>
	</g>
	<g class="st17">
		<g>
			<defs>
				<rect id="SVGID_56_" x="256.4" y="57.6" width="3.5" height="3.3"/>
			</defs>
			<clipPath id="SVGID_57_">
				<use xlink:href="#SVGID_56_"  style="overflow:visible;"/>
			</clipPath>
			<g class="st23">
				<defs>
					<path id="SVGID_58_" d="M256.5,59.1c-0.1-0.2-0.2-0.4-0.1-0.7c0.1-0.5,0.6-0.9,1.1-0.8c0.2,0,0.4,0.2,0.6,0.4l0,0l0.1,0.2
						l0.2-0.1l0,0c0.2-0.1,0.4-0.2,0.7-0.1c0.5,0.1,0.9,0.6,0.8,1.1c0,0.2-0.2,0.4-0.4,0.6l-1.8,1.2L256.5,59.1z"/>
				</defs>
				<clipPath id="SVGID_59_">
					<use xlink:href="#SVGID_58_"  style="overflow:visible;"/>
				</clipPath>
				
					<linearGradient id="SVGID_60_" gradientUnits="userSpaceOnUse" x1="-304.3767" y1="533.2531" x2="-303.6207" y2="533.2531" gradientTransform="matrix(-2.9246 -3.4292 -3.4292 2.9246 1197.5496 -2543.0383)">
					<stop  offset="0" style="stop-color:#B31917"/>
					<stop  offset="0.264" style="stop-color:#C52728"/>
					<stop  offset="0.7225" style="stop-color:#DE3B41"/>
					<stop  offset="1" style="stop-color:#E7424A"/>
				</linearGradient>
				<polygon class="st24" points="257.9,62.7 254.7,59 258.5,55.8 261.7,59.5 				"/>
			</g>
		</g>
	</g>
	<g>
		<defs>
			<path id="SVGID_61_" d="M269.5,34c0,0.7,0.2,1.3,0.7,1.9l4.4,4.4l4.4-4.4c0.4-0.5,0.7-1.2,0.7-1.9c0-1.6-1.3-2.8-2.8-2.8
				c-0.7,0-1.3,0.2-1.9,0.7l0,0l-0.4,0.4l-0.4-0.4l0,0c-0.5-0.4-1.2-0.7-1.9-0.7C270.8,31.2,269.5,32.4,269.5,34"/>
		</defs>
		<clipPath id="SVGID_62_">
			<use xlink:href="#SVGID_61_"  style="overflow:visible;"/>
		</clipPath>
		
			<linearGradient id="SVGID_63_" gradientUnits="userSpaceOnUse" x1="-303.8908" y1="533.1511" x2="-303.1348" y2="533.1511" gradientTransform="matrix(-2.5508 -5.6011 -5.6011 2.5508 2485.5112 -3026.7693)">
			<stop  offset="0" style="stop-color:#B31917"/>
			<stop  offset="0.2533" style="stop-color:#C42222"/>
			<stop  offset="0.7185" style="stop-color:#DD2F34"/>
			<stop  offset="1" style="stop-color:#E6343A"/>
		</linearGradient>
		<polygon class="st25" points="271.3,44.2 266.1,32.8 278,27.3 283.2,38.7 		"/>
	</g>
	<g>
		<defs>
			<path id="SVGID_64_" d="M265.8,27.6c0,0.7,0.2,1.3,0.7,1.9l4.4,4.4l4.4-4.4c0.4-0.5,0.7-1.2,0.7-1.9c0-1.6-1.3-2.8-2.8-2.8
				c-0.7,0-1.3,0.2-1.9,0.7l0,0l-0.4,0.4l-0.4-0.4l0,0c-0.5-0.4-1.2-0.7-1.9-0.7C267,24.8,265.8,26.1,265.8,27.6"/>
		</defs>
		<clipPath id="SVGID_65_">
			<use xlink:href="#SVGID_64_"  style="overflow:visible;"/>
		</clipPath>
		
			<linearGradient id="SVGID_66_" gradientUnits="userSpaceOnUse" x1="-302.2279" y1="531.9036" x2="-301.4719" y2="531.9036" gradientTransform="matrix(-2.1076 -9.5944 -9.5944 2.1076 4737.9644 -3987.9824)">
			<stop  offset="0" style="stop-color:#B31917"/>
			<stop  offset="0.1657" style="stop-color:#C32122"/>
			<stop  offset="0.4397" style="stop-color:#D62C2F"/>
			<stop  offset="0.7168" style="stop-color:#E23237"/>
			<stop  offset="1" style="stop-color:#E6343A"/>
		</linearGradient>
		<polygon class="st26" points="266.3,36.1 263.9,25.2 275.6,22.7 277.9,33.5 		"/>
	</g>
	<g>
		<defs>
			<path id="SVGID_67_" d="M264.1,17c0,0.7,0.2,1.3,0.7,1.9l4.4,4.4l4.4-4.4c0.4-0.5,0.7-1.2,0.7-1.9c0-1.6-1.3-2.8-2.8-2.8
				c-0.7,0-1.3,0.2-1.9,0.7l0,0l-0.4,0.4l-0.4-0.4l0,0c-0.5-0.4-1.2-0.7-1.9-0.7C265.4,14.2,264.1,15.5,264.1,17"/>
		</defs>
		<clipPath id="SVGID_68_">
			<use xlink:href="#SVGID_67_"  style="overflow:visible;"/>
		</clipPath>
		
			<linearGradient id="SVGID_69_" gradientUnits="userSpaceOnUse" x1="-299.9066" y1="528.3477" x2="-299.1506" y2="528.3477" gradientTransform="matrix(8.5683 -4.9081 -4.9081 -8.5683 5430.0264 3075.0222)">
			<stop  offset="0" style="stop-color:#8E1814"/>
			<stop  offset="1" style="stop-color:#E52D33"/>
		</linearGradient>
		<polygon class="st27" points="260.2,16.4 271.8,9.8 278.3,21.1 266.7,27.7 		"/>
	</g>
	<g>
		<defs>
			<path id="SVGID_70_" d="M301.2,5.9c1.2,1,2,2.5,2,4.2c0,1.3-0.5,2.6-1.3,3.6l-6,6c0.5,0.7,0.9,1.6,1,2.5c0.8-0.5,1.8-0.8,2.8-0.8
				c1.3,0,2.6,0.5,3.6,1.3l0,0l0.8,0.8l0.8-0.8l0,0c1-0.9,2.3-1.3,3.6-1.3c3,0,5.5,2.4,5.5,5.5c0,0.1,0,0.3,0,0.4
				c6.4,0.9,12.2,3.1,17.4,6.5c4.4,3,8.9,7.3,13.5,12.8c0,0-0.1,0-0.1,0c1.3,1.6,3.5,5,4.3,9.7c1.1,6.2-0.8,11.2-1.6,13.1
				c3.6,0,8.6-1.7,12.6-6.1c4.1-4.4,9.1-21.2-1.9-34.2c0,0,0,0,0,0c-2.8-3.3-5.7-7.2-14.3-13c-10.5-6.9-23.3-10.4-38-10.4
				C304.3,5.8,302.7,5.8,301.2,5.9"/>
		</defs>
		<clipPath id="SVGID_71_">
			<use xlink:href="#SVGID_70_"  style="overflow:visible;"/>
		</clipPath>
		
			<linearGradient id="SVGID_72_" gradientUnits="userSpaceOnUse" x1="-298.9986" y1="531.684" x2="-298.2426" y2="531.684" gradientTransform="matrix(91.344 0 0 -91.344 27607.5332 48603.7305)">
			<stop  offset="0" style="stop-color:#E84A41"/>
			<stop  offset="0.55" style="stop-color:#D61016"/>
			<stop  offset="1" style="stop-color:#8B1812"/>
		</linearGradient>
		<rect x="295.8" y="5.8" class="st28" width="73.4" height="63.6"/>
	</g>
	<g>
		<defs>
			<path id="SVGID_73_" d="M271.9,20.3c0,0.7,0.2,1.3,0.7,1.9l4.4,4.4l4.4-4.4c0.4-0.5,0.7-1.2,0.7-1.9c0-1.6-1.3-2.8-2.8-2.8
				c-0.7,0-1.3,0.2-1.9,0.7l0,0l-0.4,0.4l-0.4-0.4l0,0c-0.5-0.4-1.2-0.7-1.9-0.7C273.2,17.5,271.9,18.8,271.9,20.3"/>
		</defs>
		<clipPath id="SVGID_74_">
			<use xlink:href="#SVGID_73_"  style="overflow:visible;"/>
		</clipPath>
		
			<linearGradient id="SVGID_75_" gradientUnits="userSpaceOnUse" x1="-298.4498" y1="529.4695" x2="-297.6938" y2="529.4695" gradientTransform="matrix(13.5562 0 0 -13.5562 4317.7778 7199.6504)">
			<stop  offset="0" style="stop-color:#8E1814"/>
			<stop  offset="1" style="stop-color:#E52D33"/>
		</linearGradient>
		<rect x="271.9" y="17.5" class="st29" width="10.2" height="9.1"/>
	</g>
	<g>
		<defs>
			<path id="SVGID_76_" d="M303.8,22.3c0,0.7,0.2,1.3,0.7,1.9l4.4,4.4l4.4-4.4c0.4-0.5,0.7-1.2,0.7-1.9c0-1.6-1.3-2.8-2.8-2.8
				c-0.7,0-1.3,0.2-1.9,0.7l0,0l-0.4,0.4l-0.4-0.4l0,0c-0.5-0.4-1.2-0.7-1.9-0.7C305,19.5,303.8,20.7,303.8,22.3"/>
		</defs>
		<clipPath id="SVGID_77_">
			<use xlink:href="#SVGID_76_"  style="overflow:visible;"/>
		</clipPath>
		
			<linearGradient id="SVGID_78_" gradientUnits="userSpaceOnUse" x1="-301.3336" y1="529.1028" x2="-300.5776" y2="529.1028" gradientTransform="matrix(7.6531 -4.9911 -4.9911 -7.6531 5254.2603 2570.3506)">
			<stop  offset="0" style="stop-color:#8E1814"/>
			<stop  offset="1" style="stop-color:#E52D33"/>
		</linearGradient>
		<polygon class="st30" points="299.6,22.2 310.9,14.8 318.2,25.9 306.8,33.3 		"/>
	</g>
	<g>
		<defs>
			<path id="SVGID_79_" d="M271.5,23.4c0,1,0.4,1.9,1,2.6l6.3,6.3l6.3-6.3c0.6-0.7,1-1.7,1-2.6c0-2.2-1.8-4-4-4c-1,0-1.9,0.4-2.6,1
				l0,0l-0.6,0.6l-0.6-0.6l0,0c-0.7-0.6-1.7-1-2.6-1C273.3,19.4,271.5,21.2,271.5,23.4"/>
		</defs>
		<clipPath id="SVGID_80_">
			<use xlink:href="#SVGID_79_"  style="overflow:visible;"/>
		</clipPath>
		
			<linearGradient id="SVGID_81_" gradientUnits="userSpaceOnUse" x1="-301.1404" y1="531.6348" x2="-300.3844" y2="531.6348" gradientTransform="matrix(-0.1179 -14.2625 -14.2625 0.1179 7825.7573 -4326.7881)">
			<stop  offset="0" style="stop-color:#8E1814"/>
			<stop  offset="1" style="stop-color:#E52D33"/>
		</linearGradient>
		<polygon class="st31" points="271.5,32.5 271.4,19.4 286,19.3 286.1,32.3 		"/>
	</g>
	<g>
		<defs>
			<path id="SVGID_82_" d="M310.2,25.3c0,0.7,0.2,1.3,0.7,1.9l4.4,4.4l4.4-4.4c0.4-0.5,0.7-1.2,0.7-1.9c0-1.6-1.3-2.8-2.8-2.8
				c-0.7,0-1.3,0.2-1.9,0.7l0,0l-0.4,0.4l-0.4-0.4l0,0c-0.5-0.4-1.2-0.7-1.9-0.7C311.5,22.5,310.2,23.8,310.2,25.3"/>
		</defs>
		<clipPath id="SVGID_83_">
			<use xlink:href="#SVGID_82_"  style="overflow:visible;"/>
		</clipPath>
		
			<linearGradient id="SVGID_84_" gradientUnits="userSpaceOnUse" x1="-302.478" y1="534.1647" x2="-301.722" y2="534.1647" gradientTransform="matrix(-2.5789 -7.4038 -7.4038 2.5789 3490.9158 -3587.7715)">
			<stop  offset="0" style="stop-color:#8E1814"/>
			<stop  offset="1" style="stop-color:#E52D33"/>
		</linearGradient>
		<polygon class="st32" points="311.3,34.8 307.4,23.5 319.4,19.3 323.3,30.6 		"/>
	</g>
	<g>
		<defs>
			<path id="SVGID_85_" d="M263.4,23.6c0,0.7,0.2,1.3,0.7,1.9l4.4,4.4l4.4-4.4c0.4-0.5,0.7-1.2,0.7-1.9c0-1.6-1.3-2.8-2.8-2.8
				c-0.7,0-1.3,0.2-1.9,0.7l0,0l-0.4,0.4l-0.4-0.4l0,0c-0.5-0.4-1.2-0.7-1.9-0.7C264.6,20.8,263.4,22,263.4,23.6"/>
		</defs>
		<clipPath id="SVGID_86_">
			<use xlink:href="#SVGID_85_"  style="overflow:visible;"/>
		</clipPath>
		
			<linearGradient id="SVGID_87_" gradientUnits="userSpaceOnUse" x1="-302.4023" y1="530.9997" x2="-301.6463" y2="530.9997" gradientTransform="matrix(8.320000e-02 -9.4003 -9.4003 -8.320000e-02 5285.1597 -2769.5706)">
			<stop  offset="0" style="stop-color:#8E1814"/>
			<stop  offset="1" style="stop-color:#E52D33"/>
		</linearGradient>
		<polygon class="st33" points="263.3,29.9 263.4,20.7 273.7,20.8 273.6,30 		"/>
	</g>
	<g>
		<defs>
			<path id="SVGID_88_" d="M275.3,11.8c0,0.7,0.2,1.3,0.7,1.9l4.4,4.4l4.4-4.4c0.4-0.5,0.7-1.2,0.7-1.9c0-1.6-1.3-2.8-2.8-2.8
				c-0.7,0-1.3,0.2-1.9,0.7l0,0l-0.4,0.4L280,9.7l0,0c-0.5-0.4-1.2-0.7-1.9-0.7C276.6,9,275.3,10.2,275.3,11.8"/>
		</defs>
		<clipPath id="SVGID_89_">
			<use xlink:href="#SVGID_88_"  style="overflow:visible;"/>
		</clipPath>
		
			<linearGradient id="SVGID_90_" gradientUnits="userSpaceOnUse" x1="-301.3739" y1="534.0363" x2="-300.6179" y2="534.0363" gradientTransform="matrix(-8.3189 -8.4853 -8.4853 8.3189 2307.2803 -6983.7817)">
			<stop  offset="0" style="stop-color:#8E1814"/>
			<stop  offset="1" style="stop-color:#E52D33"/>
		</linearGradient>
		<polygon class="st34" points="280.3,23.2 270.8,13.4 280.5,3.9 290.1,13.6 		"/>
	</g>
	<g>
		<defs>
			<path id="SVGID_91_" d="M278.5,28.1c0,0.7,0.2,1.3,0.7,1.9l4.4,4.4l4.4-4.4c0.4-0.5,0.7-1.2,0.7-1.9c0-1.6-1.3-2.8-2.8-2.8
				c-0.7,0-1.3,0.2-1.9,0.7l0,0l-0.4,0.4l-0.4-0.4l0,0c-0.5-0.4-1.2-0.7-1.9-0.7C279.8,25.3,278.5,26.5,278.5,28.1"/>
		</defs>
		<clipPath id="SVGID_92_">
			<use xlink:href="#SVGID_91_"  style="overflow:visible;"/>
		</clipPath>
		
			<linearGradient id="SVGID_93_" gradientUnits="userSpaceOnUse" x1="-297.2" y1="530.3342" x2="-296.444" y2="530.3342" gradientTransform="matrix(10.4043 8.7108 8.7108 -10.4043 -1246.9456 8133.8105)">
			<stop  offset="0" style="stop-color:#8E1814"/>
			<stop  offset="1" style="stop-color:#E52D33"/>
		</linearGradient>
		<polygon class="st35" points="282.8,20.2 293.3,29 284.6,39.4 274.1,30.6 		"/>
	</g>
	<g>
		<defs>
			<path id="SVGID_94_" d="M286.7,22.1c0,0.7,0.2,1.3,0.7,1.9l4.4,4.4l4.4-4.4c0.4-0.5,0.7-1.2,0.7-1.9c0-1.6-1.3-2.8-2.8-2.8
				c-0.7,0-1.3,0.2-1.9,0.7l0,0l-0.4,0.4l-0.4-0.4l0,0c-0.5-0.4-1.2-0.7-1.9-0.7C288,19.2,286.7,20.5,286.7,22.1"/>
		</defs>
		<clipPath id="SVGID_95_">
			<use xlink:href="#SVGID_94_"  style="overflow:visible;"/>
		</clipPath>
		
			<linearGradient id="SVGID_96_" gradientUnits="userSpaceOnUse" x1="-299.425" y1="529.3262" x2="-298.6691" y2="529.3262" gradientTransform="matrix(12.0115 -2.9217 -2.9217 -12.0115 5430.6406 5508.019)">
			<stop  offset="0" style="stop-color:#8E1814"/>
			<stop  offset="4.807690e-03" style="stop-color:#8E1814"/>
			<stop  offset="1.723673e-02" style="stop-color:#8F1814"/>
			<stop  offset="0.6835" style="stop-color:#CD272A"/>
			<stop  offset="1" style="stop-color:#E52D33"/>
		</linearGradient>
		<polygon class="st36" points="284.7,19.8 296.4,16.9 299.1,27.8 287.3,30.7 		"/>
	</g>
	<path class="st37" d="M296.3,3.9c-1.2,0-2.4,0.4-3.4,1.3l0,0L292.2,6l-0.8-0.8l0,0c-0.9-0.8-2.1-1.3-3.4-1.3
		c-2.8,0-5.1,2.3-5.1,5.1c0,1.2,0.4,2.4,1.3,3.4l8,8l8-8c0.8-0.9,1.3-2.1,1.3-3.4C301.4,6.2,299.1,3.9,296.3,3.9"/>
	<path class="st37" d="M290.8,26c-0.6-0.7-1-1.7-1-2.6c0-2.2,1.8-4,4-4c1,0,1.9,0.4,2.6,1l0,0l0.6,0.6l0.6-0.6l0,0
		c0.7-0.6,1.7-1,2.6-1c2.2,0,4,1.8,4,4c0,1-0.4,1.9-1,2.6l-6.3,6.3L290.8,26z"/>
	<path class="st38" d="M302,10.9c-0.8,0-1.6,0.3-2.2,0.8l0,0l-0.5,0.5l-0.5-0.5l0,0c-0.6-0.5-1.4-0.8-2.2-0.8
		c-1.8,0-3.3,1.5-3.3,3.3c0,0.8,0.3,1.6,0.8,2.1l5.1,5.2l5.1-5.1c0.5-0.6,0.8-1.4,0.8-2.1C305.2,12.3,303.8,10.9,302,10.9"/>
	<path class="st39" d="M591.3,88.3h-95.8c-0.4,0-0.8-0.3-0.8-0.8c0-0.4,0.3-0.8,0.8-0.8h95.8c0.4,0,0.8,0.3,0.8,0.8
		C592.1,87.9,591.8,88.3,591.3,88.3"/>
	<path class="st39" d="M591.3,136.9h-95.8c-0.4,0-0.8-0.3-0.8-0.8c0-0.4,0.3-0.8,0.8-0.8h95.8c0.4,0,0.8,0.3,0.8,0.8
		C592.1,136.5,591.8,136.9,591.3,136.9"/>
	<g>
		<path class="st40" d="M9.3,211.9l-6.2-9.4v15.6H1.5v-18h1.9l6.8,10.2l6.8-10.2h1.9v18h-1.6v-15.6l-6.2,9.4H9.3z"/>
		<path class="st40" d="M29.8,200.1v6.7h3.7c0.9,0,1.8,0.1,2.5,0.4c0.7,0.3,1.4,0.6,1.9,1.1c0.5,0.5,0.9,1.1,1.2,1.8
			c0.3,0.7,0.4,1.5,0.4,2.3c0,0.9-0.1,1.6-0.4,2.3c-0.3,0.7-0.7,1.3-1.2,1.8c-0.5,0.5-1.2,0.9-1.9,1.1c-0.7,0.3-1.6,0.4-2.5,0.4
			h-5.4v-18H29.8z M37.8,212.4c0-1.3-0.4-2.3-1.1-3.1c-0.7-0.8-1.9-1.1-3.3-1.1h-3.6v8.4h3.6c1.5,0,2.6-0.4,3.3-1.1
			C37.5,214.7,37.8,213.7,37.8,212.4z M43.3,200.1v18h-1.6v-18H43.3z"/>
		<path class="st40" d="M67,207.9c1,0,1.9-0.1,2.8-0.3c0.8-0.2,1.6-0.4,2.2-0.7c0.6-0.3,1.1-0.7,1.5-1.2c0.4-0.5,0.5-1,0.5-1.6
			c0-0.8-0.4-1.5-1.1-2.1c-0.8-0.5-1.9-0.8-3.5-0.8c-0.7,0-1.5,0.1-2.2,0.2c-0.8,0.2-1.5,0.4-2.1,0.7l-0.2-1.6
			c0.6-0.3,1.4-0.5,2.2-0.6c0.8-0.2,1.7-0.2,2.5-0.2c1,0,1.8,0.1,2.6,0.3c0.8,0.2,1.4,0.5,2,0.9c0.5,0.4,1,0.8,1.2,1.3
			c0.3,0.5,0.4,1.1,0.4,1.7c0,0.7-0.1,1.2-0.4,1.7c-0.3,0.5-0.6,1-1.1,1.3c-0.5,0.4-1,0.7-1.6,1c-0.6,0.3-1.2,0.5-1.9,0.6
			c1.6,0.3,2.8,0.9,3.8,1.7c1,0.8,1.4,1.9,1.4,3.2c0,0.7-0.2,1.4-0.5,2c-0.3,0.6-0.8,1.1-1.4,1.5c-0.6,0.4-1.3,0.7-2.1,1
			c-0.8,0.2-1.8,0.3-2.8,0.3c-0.8,0-1.6-0.1-2.4-0.2c-0.8-0.1-1.6-0.3-2.3-0.6l0.1-1.6c0.7,0.3,1.5,0.5,2.2,0.7
			c0.8,0.1,1.5,0.2,2.3,0.2c1.6,0,2.8-0.3,3.8-0.9c0.9-0.6,1.4-1.5,1.4-2.5c0-1.3-0.6-2.3-1.9-3c-1.3-0.7-3-1-5.3-1.1V207.9z"/>
		<path class="st40" d="M94.8,213.1h-8.7l-1.9,4.9h-1.8l7.1-18h1.9l7.1,18h-1.8L94.8,213.1z M86.7,211.7h7.6l-3.8-9.8L86.7,211.7z"
			/>
		<path class="st40" d="M106,200.1h5.9c0.9,0,1.7,0.1,2.4,0.3c0.7,0.2,1.3,0.6,1.8,1c0.5,0.4,0.9,0.9,1.2,1.5
			c0.3,0.6,0.4,1.2,0.4,1.9c0,1-0.2,1.8-0.6,2.4c-0.4,0.6-1,1.1-1.8,1.5c1.1,0.3,1.9,0.9,2.5,1.7c0.6,0.8,0.8,1.7,0.8,2.8
			c0,1.6-0.6,2.8-1.7,3.7c-1.1,0.9-2.7,1.3-4.8,1.3H106V200.1z M116,204.8c0-1-0.4-1.8-1.1-2.4c-0.7-0.6-1.8-0.9-3.2-0.9h-4.1v6.5
			h3.9c1.5,0,2.7-0.2,3.4-0.7C115.7,206.8,116,206,116,204.8z M116.9,213c0-1.3-0.4-2.2-1.3-2.8c-0.9-0.5-2.2-0.8-3.9-0.8h-4.1v7.2
			h4.3C115.3,216.6,116.9,215.4,116.9,213z"/>
		<path class="st40" d="M141.8,209.1c0,1.3-0.2,2.5-0.5,3.7c-0.4,1.1-0.9,2.1-1.5,3c-0.7,0.8-1.5,1.5-2.5,2c-1,0.5-2.1,0.7-3.3,0.7
			c-1.2,0-2.3-0.2-3.3-0.7c-1-0.5-1.8-1.1-2.5-2c-0.7-0.8-1.2-1.8-1.5-3c-0.4-1.1-0.5-2.4-0.5-3.7c0-1.3,0.2-2.5,0.5-3.7
			c0.4-1.1,0.9-2.1,1.5-3c0.7-0.8,1.5-1.5,2.5-2c1-0.5,2.1-0.7,3.3-0.7c1.2,0,2.3,0.2,3.3,0.7c1,0.5,1.8,1.1,2.5,2
			c0.7,0.8,1.2,1.8,1.5,3C141.7,206.5,141.8,207.7,141.8,209.1z M140.2,209.1c0-1.2-0.1-2.2-0.4-3.2c-0.3-1-0.7-1.8-1.2-2.5
			c-0.5-0.7-1.2-1.2-1.9-1.6c-0.8-0.4-1.6-0.6-2.6-0.6c-1,0-1.8,0.2-2.6,0.6c-0.8,0.4-1.4,0.9-1.9,1.6c-0.5,0.7-0.9,1.5-1.2,2.5
			c-0.3,1-0.4,2-0.4,3.2c0,1.2,0.1,2.2,0.4,3.2c0.3,1,0.7,1.8,1.2,2.5c0.5,0.7,1.2,1.2,1.9,1.6c0.8,0.4,1.6,0.6,2.6,0.6
			c1,0,1.8-0.2,2.6-0.6c0.8-0.4,1.4-0.9,1.9-1.6c0.5-0.7,0.9-1.5,1.2-2.5C140,211.3,140.2,210.2,140.2,209.1z"/>
		<path class="st40" d="M150.3,200.1h10.9v1.4H152v6.5h8.6v1.4H152v7.1h9.5v1.4h-11.1V200.1z"/>
		<path class="st40" d="M169.8,200.1h5.9c0.9,0,1.7,0.1,2.4,0.3c0.7,0.2,1.3,0.6,1.8,1c0.5,0.4,0.9,0.9,1.2,1.5
			c0.3,0.6,0.4,1.2,0.4,1.9c0,1-0.2,1.8-0.6,2.4c-0.4,0.6-1,1.1-1.8,1.5c1.1,0.3,1.9,0.9,2.5,1.7c0.6,0.8,0.8,1.7,0.8,2.8
			c0,1.6-0.6,2.8-1.7,3.7c-1.1,0.9-2.7,1.3-4.8,1.3h-6.2V200.1z M179.9,204.8c0-1-0.4-1.8-1.1-2.4c-0.7-0.6-1.8-0.9-3.2-0.9h-4.1
			v6.5h3.9c1.5,0,2.7-0.2,3.4-0.7C179.5,206.8,179.9,206,179.9,204.8z M180.8,213c0-1.3-0.4-2.2-1.3-2.8c-0.9-0.5-2.2-0.8-3.9-0.8
			h-4.1v7.2h4.3C179.1,216.6,180.8,215.4,180.8,213z"/>
		<path class="st40" d="M201.3,213.1h-8.7l-1.9,4.9h-1.8l7.1-18h1.9l7.1,18h-1.8L201.3,213.1z M193.2,211.7h7.6l-3.8-9.8
			L193.2,211.7z"/>
		<path class="st40" d="M216.5,214.1c0,1.5-0.3,2.6-1,3.3c-0.7,0.7-1.7,1-3,1c-0.5,0-1.1-0.1-1.7-0.2l0.2-1.5c0.5,0.1,1,0.2,1.5,0.2
			c0.9,0,1.5-0.2,1.9-0.7c0.4-0.5,0.6-1.3,0.6-2.5v-13.6h11.1v18h-1.6v-16.6h-7.8V214.1z"/>
		<path class="st40" d="M249.1,218.1h-1.6v-15.8l-10.2,15.8h-2v-18h1.6v15.8l10.2-15.8h2V218.1z"/>
		<path class="st40" d="M279.2,211.9l-6.2-9.4v15.6h-1.6v-18h1.9l6.8,10.2l6.8-10.2h1.9v18H287v-15.6l-6.2,9.4H279.2z"/>
		<path class="st40" d="M311.7,218.1h-1.6v-15.8l-10.2,15.8h-2v-18h1.6v15.8l10.2-15.8h2V218.1z"/>
		<path class="st40" d="M325.1,214.1c0,1.5-0.3,2.6-1,3.3c-0.7,0.7-1.7,1-3,1c-0.5,0-1.1-0.1-1.7-0.2l0.2-1.5c0.5,0.1,1,0.2,1.5,0.2
			c0.9,0,1.5-0.2,1.9-0.7c0.4-0.5,0.6-1.3,0.6-2.5v-13.6h11.1v18h-1.6v-16.6h-7.8V214.1z"/>
		<path class="st40" d="M347.9,214.1c0,1.5-0.3,2.6-1,3.3c-0.7,0.7-1.7,1-3,1c-0.5,0-1.1-0.1-1.7-0.2l0.2-1.5c0.5,0.1,1,0.2,1.5,0.2
			c0.9,0,1.5-0.2,1.9-0.7c0.4-0.5,0.6-1.3,0.6-2.5v-13.6h11.1v18h-1.6v-16.6h-7.8V214.1z"/>
		<path class="st40" d="M380.6,218.1H379v-15.8l-10.2,15.8h-2v-18h1.6v15.8l10.2-15.8h2V218.1z"/>
		<path class="st40" d="M404.8,209.1c0,1.3-0.2,2.5-0.5,3.7c-0.4,1.1-0.9,2.1-1.5,3c-0.7,0.8-1.5,1.5-2.5,2c-1,0.5-2.1,0.7-3.3,0.7
			c-1.2,0-2.3-0.2-3.3-0.7c-1-0.5-1.8-1.1-2.5-2c-0.7-0.8-1.2-1.8-1.5-3c-0.4-1.1-0.5-2.4-0.5-3.7c0-1.3,0.2-2.5,0.5-3.7
			c0.4-1.1,0.9-2.1,1.5-3c0.7-0.8,1.5-1.5,2.5-2c1-0.5,2.1-0.7,3.3-0.7c1.2,0,2.3,0.2,3.3,0.7c1,0.5,1.8,1.1,2.5,2
			c0.7,0.8,1.2,1.8,1.5,3C404.6,206.5,404.8,207.7,404.8,209.1z M403.1,209.1c0-1.2-0.1-2.2-0.4-3.2c-0.3-1-0.7-1.8-1.2-2.5
			c-0.5-0.7-1.2-1.2-1.9-1.6c-0.8-0.4-1.6-0.6-2.6-0.6c-1,0-1.8,0.2-2.6,0.6c-0.8,0.4-1.4,0.9-1.9,1.6c-0.5,0.7-0.9,1.5-1.2,2.5
			c-0.3,1-0.4,2-0.4,3.2c0,1.2,0.1,2.2,0.4,3.2c0.3,1,0.7,1.8,1.2,2.5c0.5,0.7,1.2,1.2,1.9,1.6c0.8,0.4,1.6,0.6,2.6,0.6
			c1,0,1.8-0.2,2.6-0.6c0.8-0.4,1.4-0.9,1.9-1.6c0.5-0.7,0.9-1.5,1.2-2.5C402.9,211.3,403.1,210.2,403.1,209.1z"/>
		<path class="st40" d="M413.2,200.1h1.6v7.7h10.3v-7.7h1.6v18h-1.6v-8.9h-10.3v8.9h-1.6V200.1z"/>
		<path class="st40" d="M437.9,200.1v6.7h3.7c0.9,0,1.8,0.1,2.5,0.4c0.7,0.3,1.4,0.6,1.9,1.1c0.5,0.5,0.9,1.1,1.2,1.8
			c0.3,0.7,0.4,1.5,0.4,2.3c0,0.9-0.1,1.6-0.4,2.3c-0.3,0.7-0.7,1.3-1.2,1.8c-0.5,0.5-1.2,0.9-1.9,1.1c-0.7,0.3-1.6,0.4-2.5,0.4
			h-5.4v-18H437.9z M445.9,212.4c0-1.3-0.4-2.3-1.1-3.1c-0.7-0.8-1.9-1.1-3.3-1.1h-3.6v8.4h3.6c1.5,0,2.6-0.4,3.3-1.1
			C445.5,214.7,445.9,213.7,445.9,212.4z M451.4,200.1v18h-1.6v-18H451.4z"/>
		<path class="st40" d="M472.7,209.1c0-1.4,0.2-2.6,0.7-3.8c0.4-1.1,1.1-2.1,1.9-2.9c0.8-0.8,1.8-1.5,2.9-1.9
			c1.1-0.5,2.4-0.7,3.8-0.7c0.7,0,1.3,0.1,2,0.2c0.7,0.1,1.3,0.3,1.9,0.6l-0.2,1.6c-0.5-0.3-1.1-0.5-1.7-0.6
			c-0.6-0.1-1.3-0.2-1.9-0.2c-1.2,0-2.3,0.2-3.2,0.6c-0.9,0.4-1.7,0.9-2.4,1.6c-0.7,0.7-1.2,1.5-1.5,2.5c-0.3,1-0.5,2-0.5,3.2
			c0,1.2,0.2,2.3,0.5,3.2c0.4,1,0.9,1.8,1.5,2.5c0.7,0.7,1.5,1.2,2.4,1.6c1,0.4,2,0.6,3.2,0.6c0.6,0,1.3-0.1,1.9-0.2
			c0.6-0.1,1.2-0.4,1.8-0.7l0.1,1.6c-0.6,0.3-1.2,0.5-1.9,0.6c-0.7,0.1-1.3,0.2-2,0.2c-1.4,0-2.7-0.2-3.9-0.7
			c-1.1-0.4-2.1-1.1-2.9-1.9c-0.8-0.8-1.4-1.8-1.9-2.9C472.9,211.7,472.7,210.4,472.7,209.1z"/>
		<path class="st40" d="M494.3,200.1h10.9v1.4h-9.3v6.5h8.6v1.4h-8.6v7.1h9.5v1.4h-11.1V200.1z"/>
		<path class="st40" d="M525.7,205.5c0,0.9-0.2,1.7-0.5,2.4c-0.3,0.7-0.8,1.3-1.4,1.7c-0.6,0.5-1.3,0.8-2.1,1.1
			c-0.8,0.2-1.8,0.4-2.8,0.4h-3.5v7h-1.6v-18h5.2c1,0,2,0.1,2.8,0.4c0.8,0.2,1.5,0.6,2.1,1.1c0.6,0.5,1,1,1.4,1.7
			C525.5,203.9,525.7,204.7,525.7,205.5z M524,205.5c0-1.4-0.4-2.4-1.3-3.1c-0.9-0.7-2.2-1-3.9-1h-3.4v8.1h3.4c1.7,0,3-0.3,3.9-1
			C523.6,208,524,206.9,524,205.5z"/>
		<path class="st40" d="M544.7,220.6h-1.6v-2.6h-11.6v2.6h-1.6v-4h1.3c1.5-2.5,2.5-5.1,3.2-7.9c0.7-2.8,1-5.7,1.1-8.6h7.4v16.6h2
			V220.6z M541.1,216.6v-15.1H537c-0.1,2.5-0.5,5-1.1,7.6c-0.6,2.6-1.6,5.1-2.9,7.5H541.1z"/>
		<path class="st40" d="M552.5,200.1h10.9v1.4h-9.3v6.5h8.6v1.4h-8.6v7.1h9.5v1.4h-11.1V200.1z"/>
		<path class="st40" d="M583.9,216.6v-16.6h1.6v16.5h1.7v4.3h-1.6v-2.9H572v-18h1.6v16.6H583.9z"/>
	</g>
	<path class="st39" d="M504.4,117.5c0.6,0.3,1.1,0.5,1.5,0.5c0.7,0,1.3-0.2,1.6-0.6c0.7-0.8,1.3-3.8,1.3-10.2l0.1-9.1h16.4v27.2
		h-6.4v-20h-4.2l0,3.3c0,6.6-0.8,11.2-2.1,13.7c-1.3,2.5-2.9,3.4-5.2,3.4c-1.3,0-2.3-0.2-2.9-0.7V117.5z"/>
	<polygon class="st39" points="537.3,125.2 537.3,98.1 553.6,98.1 553.6,105.2 543.7,105.2 543.7,107.7 551.5,107.7 551.5,114.3 
		543.7,114.3 543.7,118.1 553.8,118.1 553.8,125.2 	"/>
	<polygon class="st39" points="564.2,98.1 582.4,98.1 582.4,105.2 576.5,105.2 576.5,125.2 570.1,125.2 570.1,105.2 564.2,105.2 	
		"/>
</g>
</svg>
